

let myArtists = `{
  "items": [
    {
      "external_urls": {
        "spotify": "https://open.spotify.com/artist/06HL4z0CvFAxyc27GXpf02"
      },
      "followers": {
        "href": null,
        "total": 26530277
      },
      "genres": [
        "dance pop",
        "pop",
        "post-teen pop"
      ],
      "href": "https://api.spotify.com/v1/artists/06HL4z0CvFAxyc27GXpf02",
      "id": "06HL4z0CvFAxyc27GXpf02",
      "images": [
        {
          "height": 640,
          "url": "https://i.scdn.co/image/62b33d12e2b9a033cf77585f6e3d4b2c6b3a63a1",
          "width": 640
        },
        {
          "height": 320,
          "url": "https://i.scdn.co/image/9ab124f3323d161f87fc9b7f8b82ab1717483b3a",
          "width": 320
        },
        {
          "height": 160,
          "url": "https://i.scdn.co/image/d28b46cd7e1b7336d1688d462085535963a77311",
          "width": 160
        }
      ],
      "name": "Taylor Swift",
      "popularity": 95,
      "type": "artist",
      "uri": "spotify:artist:06HL4z0CvFAxyc27GXpf02"
    },
    {
      "external_urls": {
        "spotify": "https://open.spotify.com/artist/3mIj9lX2MWuHmhNCA7LSCW"
      },
      "followers": {
        "href": null,
        "total": 3793435
      },
      "genres": [
        "indie pop",
        "modern alternative rock",
        "modern rock",
        "nu gaze",
        "pop",
        "rock"
      ],
      "href": "https://api.spotify.com/v1/artists/3mIj9lX2MWuHmhNCA7LSCW",
      "id": "3mIj9lX2MWuHmhNCA7LSCW",
      "images": [
        {
          "height": 640,
          "url": "https://i.scdn.co/image/94dd2feca73bdfb7e1c12751b499ec0a46024866",
          "width": 640
        },
        {
          "height": 320,
          "url": "https://i.scdn.co/image/05dcebda5c8594a51eeb4b3333572342152b6c38",
          "width": 320
        },
        {
          "height": 160,
          "url": "https://i.scdn.co/image/1717dac024e71f64ec421a658c7a9769d41ce251",
          "width": 160
        }
      ],
      "name": "The 1975",
      "popularity": 83,
      "type": "artist",
      "uri": "spotify:artist:3mIj9lX2MWuHmhNCA7LSCW"
    },
    {
      "external_urls": {
        "spotify": "https://open.spotify.com/artist/246dkjvS1zLTtiykXe5h60"
      },
      "followers": {
        "href": null,
        "total": 22131044
      },
      "genres": [
        "dfw rap",
        "melodic rap",
        "rap"
      ],
      "href": "https://api.spotify.com/v1/artists/246dkjvS1zLTtiykXe5h60",
      "id": "246dkjvS1zLTtiykXe5h60",
      "images": [
        {
          "height": 640,
          "url": "https://i.scdn.co/image/93fec27f9aac86526b9010e882037afbda4e3d5f",
          "width": 640
        },
        {
          "height": 320,
          "url": "https://i.scdn.co/image/9040899d5660920fdf7efeb7aa2cc4e6d86f86f6",
          "width": 320
        },
        {
          "height": 160,
          "url": "https://i.scdn.co/image/d15a5ffb3d22adabd09a749e09e846f527ab5a94",
          "width": 160
        }
      ],
      "name": "Post Malone",
      "popularity": 98,
      "type": "artist",
      "uri": "spotify:artist:246dkjvS1zLTtiykXe5h60"
    },
    {
      "external_urls": {
        "spotify": "https://open.spotify.com/artist/163tK9Wjr9P9DmM0AVK7lm"
      },
      "followers": {
        "href": null,
        "total": 5360126
      },
      "genres": [
        "art pop",
        "dance pop",
        "electropop",
        "metropopolis",
        "nz pop",
        "pop"
      ],
      "href": "https://api.spotify.com/v1/artists/163tK9Wjr9P9DmM0AVK7lm",
      "id": "163tK9Wjr9P9DmM0AVK7lm",
      "images": [
        {
          "height": 640,
          "url": "https://i.scdn.co/image/d25fc756cd04c8b3ea196b7c07c6d057685cc405",
          "width": 640
        },
        {
          "height": 320,
          "url": "https://i.scdn.co/image/ca2e7772dcdfd03401cdd0c66aeee1bea8ea3904",
          "width": 320
        },
        {
          "height": 160,
          "url": "https://i.scdn.co/image/2f22ea3ea1597887d86441a030204dac49a74a81",
          "width": 160
        }
      ],
      "name": "Lorde",
      "popularity": 81,
      "type": "artist",
      "uri": "spotify:artist:163tK9Wjr9P9DmM0AVK7lm"
    },
    {
      "external_urls": {
        "spotify": "https://open.spotify.com/artist/49tQo2QULno7gxHutgccqF"
      },
      "followers": {
        "href": null,
        "total": 2234412
      },
      "genres": [
        "la pop",
        "pop"
      ],
      "href": "https://api.spotify.com/v1/artists/49tQo2QULno7gxHutgccqF",
      "id": "49tQo2QULno7gxHutgccqF",
      "images": [
        {
          "height": 640,
          "url": "https://i.scdn.co/image/7e41b32fde011d59779b14c6ed009df579f69b0b",
          "width": 640
        },
        {
          "height": 320,
          "url": "https://i.scdn.co/image/48f6c74d5287e897bf7721076def476d258dd2ce",
          "width": 320
        },
        {
          "height": 160,
          "url": "https://i.scdn.co/image/7c795d84cfc89b3aed4a05997284e28a34082cb0",
          "width": 160
        }
      ],
      "name": "LANY",
      "popularity": 83,
      "type": "artist",
      "uri": "spotify:artist:49tQo2QULno7gxHutgccqF"
    }
  ],
  "total": 50,
  "limit": 5,
  "offset": 0,
  "href": "https://api.spotify.com/v1/me/top/artists?limit=5&offset=0",
  "previous": null,
  "next": "https://api.spotify.com/v1/me/top/artists?limit=5&offset=5"
}`;
